…
titanic_mod_svm_wflow_tune<-workflow() %>%
  add_recipe(titanic_recipe) %>%
  add_model(titanic_mod_svm_tune)

set.seed(95)
resample_svm_fit2<-tune_grid(titanic_mod_svm_wflow_tune,resamples=vfold_titanic,grid=30) 
collect_metrics(resample_svm_fit2)
```

```
## # A tibble: 60 x 9
##       cost degree scale_factor .metric  .estimator  mean     n std_err .config  
##      <dbl>  <dbl>        <dbl> <chr>    <chr>      <dbl> <int>   <dbl> <fct>    
##  1 23.0      2.49     2.15e- 4 accuracy binary     0.786     4 0.0139  Preproce…
##  2 23.0      2.49     2.15e- 4 roc_auc  binary     0.852     4 0.00951 Preproce…
##  3  2.83     1.17     9.15e- 3 accuracy binary     0.785     4 0.0137  Preproce…
##  4  2.83     1.17     9.15e- 3 roc_auc  binary     0.851     4 0.00918 Preproce…
##  5  0.797    2.46     2.31e-10 accuracy binary     0.616     4 0.0191  Preproce…
##  6  0.797    2.46     2.31e-10 roc_auc  binary     0.807     4 0.00204 Preproce…
##  7  0.0542   1.04     1.92e- 8 accuracy binary     0.616     4 0.0191  Preproce…
##  8  0.0542   1.04     1.92e- 8 roc_auc  binary     0.834     4 0.00155 Preproce…
##  9  1.12     1.10     1.68e- 5 accuracy binary     0.616     4 0.0191  Preproce…
## 10  1.12     1.10     1.68e- 5 roc_auc  binary     0.833     4 0.00318 Preproce…
## # … with 50 more rows
```
…
```r
vi(fitted_tuned_log_mod)
```

```
## # A tibble: 29 x 3
##    Variable       Importance Sign 
##    <chr>               <dbl> <chr>
##  1 age                  5.39 NEG  
##  2 fam_sizelarge        4.80 NEG  
##  3 cabin_typeE          2.79 POS  
##  4 pclass3              2.47 NEG  
##  5 ticket_catSTO        1.92 POS  
##  6 embarkedQ            1.84 POS  
##  7 pclass2              1.55 NEG  
##  8 cabin_typeD          1.50 POS  
##  9 cabin_typeF          1.36 POS  
## 10 ticket_cat300k       1.32 NEG  
## # … with 19 more rows
```
…
```r
filter(c_titanic,str_detect(ticket,"^S")) %>% print(n=10)
```

```
## # A tibble: 65 x 16
##    survived passenger_id pclass sex     age sib_sp parch  fare embarked name 
##    <fct>           <int> <fct>  <fct> <dbl>  <int> <int> <dbl> <fct>    <chr>
##  1 1                   3 3      fema…  26        0     0  7.92 S        Heik…
##  2 1                  44 2      fema…   3        1     2 41.6  C        Laro…
##  3 0                  46 3      male   31.4      0     0  8.05 S        Roge…
##  4 0                  68 3      male   19        0     0  8.16 S        Crea…
##  5 0                  73 2      male   21        0     0 73.5  S        Hood…
##  6 1                  85 2      fema…  17        0     0 10.5  S        Ilet…
##  7 0                  88 3      male   31.4      0     0  8.05 S        Sloc…
##  8 0                 116 3      male   21        0     0  7.92 S        Peko…
##  9 0                 121 2      male   21        2     0 73.5  S        Hick…
## 10 0                 132 3      male   20        0     0  7.05 S        Coel…
## # … with 55 more rows, and 6 more variables: ticket <chr>, cabin <chr>,
## #   cabin_type <fct>, ticket_cat <fct>, marital_status <fct>, fam_size <fct>
```
…
```r
125+1+1+1+1+1+182+2 #314
```

```
## [1] 314
```

```r
filter(c_titanic,sex=="female") #314
```

```
## # A tibble: 314 x 16
##    survived passenger_id pclass sex     age sib_sp parch  fare embarked name 
##    <fct>           <int> <fct>  <fct> <dbl>  <int> <int> <dbl> <fct>    <chr>
##  1 1                   2 1      fema…    38      1     0 71.3  C        Cumi…
##  2 1                   3 3      fema…    26      0     0  7.92 S        Heik…
##  3 1                   4 1      fema…    35      1     0 53.1  S        Futr…
##  4 1                   9 3      fema…    27      0     2 11.1  S        John…
##  5 1                  10 2      fema…    14      1     0 30.1  C        Nass…
##  6 1                  11 3      fema…     4      1     1 16.7  S        Sand…
##  7 1                  12 1      fema…    58      0     0 26.6  S        Bonn…
##  8 0                  15 3      fema…    14      0     0  7.85 S        Vest…
##  9 1                  16 2      fema…    55      0     0 16    S        Hewl…
## 10 0                  19 3      fema…    31      1     0 18    S        Vand…
## # … with 304 more rows, and 6 more variables: ticket <chr>, cabin <chr>,
## #   cabin_type <fct>, ticket_cat <fct>, marital_status <fct>, fam_size <fct>
```
…
### Preprocessing Test Data

```r
#Read in data
t_titanic<-read_csv(here("data","raw_data","test.csv"),
                    col_types="ifcfniicncf")
t_titanic
```

```
## # A tibble: 418 x 11
##    PassengerId Pclass Name   Sex     Age SibSp Parch Ticket  Fare Cabin Embarked
##          <int> <fct>  <chr>  <fct> <dbl> <int> <int> <chr>  <dbl> <chr> <fct>   
##  1         892 3      Kelly… male   34.5     0     0 330911  7.83 <NA>  Q       
##  2         893 3      Wilke… fema…  47       1     0 363272  7    <NA>  S       
##  3         894 2      Myles… male   62       0     0 240276  9.69 <NA>  Q       
##  4         895 3      Wirz,… male   27       0     0 315154  8.66 <NA>  S       
##  5         896 3      Hirvo… fema…  22       1     1 31012… 12.3  <NA>  S       
##  6         897 3      Svens… male   14       0     0 7538    9.22 <NA>  S       
##  7         898 3      Conno… fema…  30       0     0 330972  7.63 <NA>  Q       
##  8         899 2      Caldw… male   26       1     1 248738 29    <NA>  S       
##  9         900 3      Abrah… fema…  18       0     0 2657    7.23 <NA>  C       
## 10         901 3      Davie… male   21       2     0 A/4 4… 24.2  <NA>  S       
## # … with 408 more rows
```
…
```r
#family size: combine parch and sib_sp
ct_titanic<-ct_titanic %>% mutate(fam_size=parch+sib_sp)
ct_titanic$fam_size<-as.factor(ct_titanic$fam_size)
ct_titanic$fam_size<-fct_collapse(ct_titanic$fam_size,solo="0",small=c("1","2","3"),
                                 large=c("4","5","6","7","8","9","10","11","12","13","14","15","16","17",
                                         "18","19","20"))


#remove unnecessary columns and convert to ft_titanic
ct_titanic
```

```
## # A tibble: 418 x 15
##    passenger_id pclass sex     age sib_sp parch  fare embarked name  ticket
##           <int> <fct>  <fct> <dbl>  <int> <int> <dbl> <fct>    <chr> <chr> 
##  1          892 3      male   34.5      0     0  7.83 Q        Kell… 330911
##  2          893 3      fema…  47        1     0  7    S        Wilk… 363272
##  3          894 2      male   62        0     0  9.69 Q        Myle… 240276
##  4          895 3      male   27        0     0  8.66 S        Wirz… 315154
##  5          896 3      fema…  22        1     1 12.3  S        Hirv… 31012…
##  6          897 3      male   14        0     0  9.22 S        Sven… 7538  
##  7          898 3      fema…  30        0     0  7.63 Q        Conn… 330972
##  8          899 2      male   26        1     1 29    S        Cald… 248738
##  9          900 3      fema…  18        0     0  7.23 C        Abra… 2657  
## 10          901 3      male   21        2     0 24.2  S        Davi… A4 48…
## # … with 408 more rows, and 5 more variables: cabin <chr>, cabin_type <fct>,
## #   ticket_cat <fct>, marital_status <fct>, fam_size <fct>
```

```r
ft_titanic<-ct_titanic[,-c(5:6,9:11)] #removes sib_sp, parch, name, ticket, and cabin
ft_titanic
```

```
## # A tibble: 418 x 10
##    passenger_id pclass sex     age  fare embarked cabin_type ticket_cat
##           <int> <fct>  <fct> <dbl> <dbl> <fct>    <fct>      <fct>     
##  1          892 3      male   34.5  7.83 Q        UO         200k      
##  2          893 3      fema…  47    7    S        UO         200k      
##  3          894 2      male   62    9.69 Q        UO         100k      
##  4          895 3      male   27    8.66 S        UO         200k      
##  5          896 3      fema…  22   12.3  S        UO         A         
##  6          897 3      male   14    9.22 S        UO         other     
##  7          898 3      fema…  30    7.63 Q        UO         200k      
##  8          899 2      male   26   29    S        UO         100k      
##  9          900 3      fema…  18    7.23 C        UO         other     
## 10          901 3      male   21   24.2  S        UO         300k      
## # … with 408 more rows, and 2 more variables: marital_status <fct>,
## #   fam_size <fct>
```
